{
  "parts": [
    {
      "name": "Resistor 150k",
      "id": "0",
      "location": "Wooden Parts Shelf",
      "stockLevel": 0
    },
    {
      "name": "Resistor 10k",
      "id": "1",
      "location": "Wooden Parts Shelf",
      "stockLevel": 1
    },
    {
      "name": "Crocodilian",
      "id": "2",
      "location": "Wooden Parts Shelf",
      "stockLevel": 2
    },
    {
      "name": "Star Screwdriver",
      "id": "3",
      "location": "Blue mobile tool shelf",
      "moreInfo": {
        "partSource": "Bunnings",
        "detail": "Bunnings democracy sausage not included"
      },
      "stockLevel": 1
    },
    {
      "name": "Red Xylophone",
      "id": "4",
      "location": "Demo shelf",
      "stockLevel": 3
    },
    {
      "name": "Jaws",
      "id": "5",
      "location": "Wooden Parts Shelf",
      "stockLevel": 2
    },
    {
      "name": "Reptile",
      "id": "6",
      "location": "Wooden Parts Shelf",
      "stockLevel": 12
    },
    {
      "name": "Solitary",
      "id": "7",
      "location": "Wooden Parts Shelf",
      "stockLevel": 0
    },
    {
      "name": "Tail",
      "id": "8",
      "location": "Wooden Parts Shelf",
      "stockLevel": 0
    },
    {
      "name": "Resistor 150 Ohm",
      "id": "9",
      "location": "Wooden Parts Shelf",
      "stockLevel": 3
    },
    {
      "name": "Stuff",
      "id": "10",
      "location": "Wooden Parts Shelf",
      "stockLevel": 5
    },
    {
      "name": "More Stuff",
      "id": "11",
      "location": "Wooden Parts Shelf",
      "stockLevel": 50
    },
    {
      "name": "Pizza",
      "id": "12",
      "location": "Wooden Parts Shelf",
      "stockLevel": 5
    },
    {
      "name": "Capacitor 10uF",
      "id": "13",
      "location": "Wooden Parts Shelf",
      "stockLevel": 50
    },
    {
      "name": "5v 2 amp Power Supply",
      "id": "14",
      "location": "Wooden Parts Shelf",
      "stockLevel": 3
    },
    {
      "name": "Breadboard",
      "id": "15",
      "location": "Soldering Area",
      "stockLevel": 0
    },
    {
      "name": "Resistor 30k",
      "id": "16",
      "location": "Wooden Parts Shelf",
      "stockLevel": 1
    },
    {
      "name": "Resistor 300 Ohm",
      "id": "17",
      "location": "Wooden Rack - labeled",
      "stockLevel": 0
    },
    {
      "name": "450mW, -50v, PNP Transistor",
      "id": "18",
      "location": "Wooden Rack - labeled",
      "moreInfo": {
        "partSource": "Aliexpress",
        "shelfLocation": [
          0,
          3
        ],
        "detail": "This is a transistor, very transistory!"
      },
      "stockLevel": 0
    },
    {
      "name": "Transperant Yellow PLA 1.75mm",
      "id": "19",
      "location": "at the Space",
      "stockLevel": 1,
      "imageURL": "https://i.imgur.com/bw4VeOX.jpg"
    }
  ]
}