{
    "items":[
        {
        "id": "1234abcd",
        "name": "3mm Screw 15mm",
        "category": "screw",
        "description": "For projects to hold parts together.",
        "hidden": false
    },
    {
        "id": "1234abcd",
        "name": "M4 Nut",
        "category": "nut",
        "description": "Also used to hold a part together with a M4 Sized screw.",
        "hidden": false
    }]
}